Name,Page,Website
Access Denied,Access Denied,ETFO Portal
Access Denied - Member Only,Access Denied - Member Only,ETFO Portal
Contact Us,Contact Us,ETFO Portal
course registration,Course Registration,ETFO Portal
course term application,Course Term Application,ETFO Portal
Error,Error,ETFO Portal
event registration,Event Registration,ETFO Portal
Help,Help,ETFO Portal
Historical Events,Historical Events,ETFO Portal
Home,Home,ETFO Portal
Login,Sign In,ETFO Portal
Manage Local Delegation,Manage Local Delegation,ETFO Portal
Manage Registration,My Events,ETFO Portal
Member Login,Member Sign Up,ETFO Portal
My Account Member,My Account Member,ETFO Portal
My Account Non Member,My Account Non Member,ETFO Portal
My ETFO,My ETFO,ETFO Portal
My Events,My Events,ETFO Portal
My Itinerary,My Itinerary,ETFO Portal
NonMember Login,Non Member Sign Up,ETFO Portal
Page Not Found,Page Not Found,ETFO Portal
Poll Archives,Poll Archives,ETFO Portal
Profile,My Account Member,ETFO Portal
Register,Register,ETFO Portal
Registration Page,Registration Page,ETFO Portal
Registration Validation,Registration Validation,ETFO Portal
Search,Search,ETFO Portal
Send Email,Send Email,ETFO Portal
Sign Up,Sign Up,ETFO Portal
Upcoming Events,Upcoming Events,ETFO Portal
Withdraw Registration,My Events,ETFO Portal
