Property Name,Property Code,Property Type,Sequence Number
Attending As Config,pr_AttendingAsRolesList,Component,
Bootstrap Width,pr_BootstrapWidth,String,
Collapsed Flag,pr_Collapsed,Boolean,
Color,pr_Color,String,
Column Titles,pr_ColumnTitles,String,
Date Flag,pr_Date,Boolean,
Date Time Flag,pr_DateTime,Boolean,
Display Column Flag,pr_DisplayColumnFlag,Boolean,
Display Group Flag,pr_DisplayGroupFlag,Boolean,
HTML CSS,pr_CSS,String,
HTML Style,pr_Style,String,
Id,pr_Id,String,
Inline Flag,pr_InlineFlag,Boolean,
Intrement Step,pr_IncrementStep,Number,
Label,pr_Label,String,
Left Label,pr_LeftLabel,String,
Maximum Length,pr_MaxLength,Number,
Maximum Value,pr_MaxValue,Number,
Minimum Length,pr_MinLength,Number,
Minimum Value,pr_MinValue,Number,
Personal Accommodation Config,pr_PersonalAccommodationList,Component,
Placeholder Text,pr_PlaceholderText,String,
Read Only Flag,pr_ReadOnly,Boolean,
Required Flag,pr_Required,Boolean,
Member Flag,pr_MemberFlag,Boolean,100
Non Member Flag,pr_NonMemberFlag,Boolean,101
President Flag,pr_PresidentFlag,Boolean,102
Guest Flag,pr_GuestFlag,Boolean,103
Approve Flag,pr_ApproveFlag,Boolean,104
Minimum Documents,pr_MinDocs,Number,104
Attachments Returning Presenter Label,pr_ReturningPresenterLabel,String,149
Attachments Course Outline Required Flag,pr_CourseOutlineRequiredFlag,Boolean,150
Attachments Course Outline Label,pr_CourseOutlineLabel,String,151
Attachments Resume Required Flag,pr_ResumeRequiredFlag,Boolean,152
Attachments Resume Label,pr_ResumeLabel,String,153
Attachments Letter Of Reference 1 Required Flag,pr_LetterOfReference1RequiredFlag,Boolean,154
Attachments Letter Of Reference 1 Label,pr_LetterOfReference1Label,String,155
Attachments Letter Of Reference 2 Required Flag,pr_LetterOfReference2RequiredFlag,Boolean,156
Attachments Letter Of Reference 2 Label,pr_LetterOfReference2Label,String,157
Attachments Individual Course Participation Letter Required Flag,pr_IndividualCourseRequiredFlag,Boolean,158
Attachments Individual Course Participation Letter Label,pr_IndividualCourseLabel,String,159
Attachments Instructor Course Agreement Form Requiered Flag,pr_InstructorCourseAgreementFormRequiredFlag,Boolean,160
Attachments Instructor Course Agreement Form Label,pr_InstructorCourseAgreementFormLabel,String,161
Attachments Instructor Payroll Enrollment Form Required Flag,pr_InstructorPayrollFormRequiredFlag,Boolean,162
Attachments Instructor Payroll Enrollment Form Label,pr_InstructorPayrollFormLabel,String,163
Attachments Blank Forms Label,pr_BlankFormsLabel,String,164
Attachments Instructor Course Agreement Blank Form Label,pr_InstructorCourseAgreementBlankFormLabel,String,165
Attachments Instructor Payroll Enrollment Blank Form Label,pr_InstructorPayrollBlankFormLabel,String,166
Attachments Upload Forms Label,pr_UploadFormsLabel,String,167
Attachments Sample Participation Letter BlankForm Label,pr_SampleParticipationLetterBlankFormLabel,String,168
Attachments Letter Template Blank Form Label,pr_LetterTemplateBlankFormLabel,String,169
HTML Data,pr_Message,String,200
HTML 1,pr_Html1,String,201
HTML Returning Presenter,pr_HtmlReturningPresenter,String,202
HTML 2,pr_Html2,String,203
